2013-08-03 18:22:53 overwrite styles/irene.css 
2013-08-03 18:25:08 overwrite styles/irene.css 
2013-08-04 13:25:00 overwrite styles/irene.css 
2013-08-04 21:46:54 overwrite styles/irene.css 
2013-08-04 21:48:05 overwrite styles/irene.css 
2013-08-04 21:49:04 overwrite styles/irene.css 
2013-08-04 21:49:58 overwrite styles/irene.css 
2013-08-04 21:52:42 identical styles/irene.css 
2013-08-04 21:53:45 overwrite styles/irene.css 
2013-08-04 21:58:56 overwrite styles/irene.css 
2013-08-04 21:59:41 overwrite styles/irene.css 
2013-08-04 22:00:57 overwrite styles/irene.css 
2013-08-04 22:05:00 overwrite styles/irene.css 
2013-08-04 22:07:23 overwrite styles/irene.css 
2013-08-04 22:07:43 overwrite styles/irene.css 
2013-08-05 08:36:38 overwrite styles/irene.css 
2013-08-05 08:37:37 overwrite styles/irene.css 
2013-08-05 08:38:21 overwrite styles/irene.css 
2013-08-05 08:38:53 overwrite styles/irene.css 
2013-08-05 08:39:02 overwrite styles/irene.css 
2013-08-05 08:40:01 overwrite styles/irene.css 
2013-08-05 08:41:20 overwrite styles/irene.css 
2013-08-05 08:41:58 overwrite styles/irene.css 
2013-08-05 08:42:29 overwrite styles/irene.css 
2013-08-05 10:29:37 overwrite styles/irene.css 
2013-08-05 16:52:05    create stylesheets/ie.css 
2013-08-05 16:52:11    create stylesheets/irene.css 
2013-08-05 16:53:28 identical stylesheets/irene.css 
2013-08-05 16:55:03    remove .sass-cache/ 
2013-08-05 16:55:03    remove styles/ie.css 
2013-08-05 16:55:04    remove styles/irene.css 
2013-08-05 16:55:04    create styles/ie.css 
2013-08-05 16:55:09    create styles/irene.css 
2013-08-05 17:00:21 overwrite styles/irene.css 
2013-08-05 17:00:34 overwrite styles/irene.css 
2013-08-05 23:15:11 overwrite styles/irene.css 
2013-08-05 23:16:41 overwrite styles/irene.css 
2013-08-05 23:17:02 overwrite styles/irene.css 
2013-08-06 08:10:27 overwrite styles/irene.css 
2013-08-06 08:12:27 overwrite styles/irene.css 
2013-08-06 08:12:47 overwrite styles/irene.css 
2013-08-06 08:13:40    create styles/irene_conflict-20130806-081339.css 
2013-08-06 08:15:14 overwrite styles/irene.css 
2013-08-06 08:15:40 overwrite styles/irene.css 
2013-08-06 08:16:08 overwrite styles/irene.css 
2013-08-06 08:17:32 overwrite styles/irene.css 
2013-08-06 08:18:07 overwrite styles/irene.css 
2013-08-06 08:19:05 overwrite styles/irene.css 
2013-08-06 08:19:54 overwrite styles/irene.css 
2013-08-06 08:20:20 overwrite styles/irene.css 
2013-08-06 08:20:44 overwrite styles/irene.css 
2013-08-06 08:26:17 overwrite styles/irene.css 
2013-08-06 08:26:46 overwrite styles/irene.css 
2013-08-06 08:27:42 overwrite styles/irene.css 
2013-08-06 08:36:38 overwrite styles/irene.css 
2013-08-06 08:37:32 overwrite styles/irene.css 
2013-08-06 09:02:30 overwrite styles/irene.css 
2013-08-06 09:03:10 overwrite styles/irene.css 
2013-08-06 09:03:30 overwrite styles/irene.css 
2013-08-06 09:03:55 overwrite styles/irene.css 
2013-08-06 09:04:53 overwrite styles/irene.css 
2013-08-06 09:05:26 overwrite styles/irene.css 
2013-08-06 09:05:51 overwrite styles/irene.css 
2013-08-06 09:07:03 overwrite styles/irene.css 
2013-08-06 09:08:46 overwrite styles/irene.css 
2013-08-06 09:09:21 overwrite styles/irene.css 
2013-08-06 09:09:47 overwrite styles/irene.css 
2013-08-06 09:10:10 overwrite styles/irene.css 
2013-08-06 11:03:06 overwrite styles/irene.css 
2013-08-06 11:03:14 overwrite styles/irene.css 
2013-08-06 11:03:58    create styles/irene_conflict-20130806-110357.css 
2013-08-06 11:44:39 overwrite styles/irene.css 
2013-08-06 11:46:50 overwrite styles/irene.css 
2013-08-06 11:49:30 overwrite styles/irene.css 
2013-08-06 11:50:22 overwrite styles/irene.css 
2013-08-06 13:39:39 overwrite styles/irene.css 
2013-08-06 13:43:42 overwrite styles/irene.css 
2013-08-06 15:01:04 overwrite styles/irene.css 
2013-08-06 16:46:16 overwrite styles/irene.css 
2013-08-06 16:47:13 overwrite styles/irene.css 
2013-08-06 16:47:52 overwrite styles/irene.css 
2013-08-06 16:56:04 overwrite styles/irene.css 
2013-08-06 16:56:25 overwrite styles/irene.css 
2013-08-06 16:56:40 overwrite styles/irene.css 
2013-08-06 16:57:03 overwrite styles/irene.css 
2013-08-06 16:57:18    create styles/irene_conflict-20130806-165717.css 
2013-08-06 17:33:31 overwrite styles/irene.css 
2013-08-06 17:33:48 overwrite styles/irene.css 
2013-08-06 17:36:38 overwrite styles/irene.css 
2013-08-06 17:36:51 overwrite styles/irene.css 
2013-08-06 17:37:13    create styles/irene_conflict-20130806-173711.css 
2013-08-06 17:37:30 overwrite styles/irene.css 
2013-08-06 17:37:54 overwrite styles/irene.css 
2013-08-06 17:41:17 overwrite styles/irene.css 
2013-08-06 21:49:11 overwrite styles/irene.css 
2013-08-06 21:56:19 overwrite styles/irene.css 
2013-08-06 21:57:32 overwrite styles/irene.css 
2013-08-06 21:58:10 overwrite styles/irene.css 
2013-08-06 22:00:53 overwrite styles/irene.css 
2013-08-06 22:03:09 overwrite styles/irene.css 
2013-08-07 14:27:28 overwrite styles/irene.css 
2013-08-07 14:27:44 overwrite styles/irene.css 
2013-08-07 14:32:07 overwrite styles/irene.css 
2013-08-07 14:32:24 overwrite styles/irene.css 
2013-08-07 14:36:01 overwrite styles/irene.css 
2013-08-07 14:36:17 overwrite styles/irene.css 
2013-08-07 14:38:05 overwrite styles/irene.css 
2013-08-07 21:36:23 overwrite styles/irene.css 
2013-08-07 21:36:57 overwrite styles/irene.css 
2013-08-07 21:39:57 overwrite styles/irene.css 
2013-08-07 21:41:42 overwrite styles/irene.css 
2013-08-07 21:42:16 overwrite styles/irene.css 
2013-08-07 21:42:52 overwrite styles/irene.css 
2013-08-07 21:48:39 overwrite styles/irene.css 
2013-08-08 09:02:39 overwrite styles/irene.css 
2013-08-08 09:03:00 overwrite styles/irene.css 
2013-08-08 09:23:44     error scss/irene.scss (Line 376: Invalid CSS after "#json, #source.": expected class name, was " .inv{")
2013-08-08 09:23:45 overwrite styles/irene.css 
2013-08-08 09:23:56     error scss/irene.scss (Line 376: Invalid CSS after "#json, #source.": expected class name, was ", .inv{")
2013-08-08 09:23:56 overwrite styles/irene.css 
2013-08-08 09:24:19 overwrite styles/irene.css 
2013-08-08 09:28:12 overwrite styles/irene.css 
2013-08-08 09:28:53 overwrite styles/irene.css 
2013-08-08 10:02:38 overwrite styles/irene.css 
2013-08-08 10:03:25 overwrite styles/irene.css 
2013-08-08 10:04:27 overwrite styles/irene.css 
2013-08-08 10:04:35 overwrite styles/irene.css 
2013-08-08 10:05:01 overwrite styles/irene.css 
2013-08-08 10:05:24 overwrite styles/irene.css 
2013-08-08 10:06:47 overwrite styles/irene.css 
2013-08-08 10:06:59 overwrite styles/irene.css 
2013-08-08 10:07:13 overwrite styles/irene.css 
2013-08-08 10:20:11     error scss/irene.scss (Line 458: Invalid CSS after "		white": expected "{", was "}")
2013-08-08 10:20:11 overwrite styles/irene.css 
2013-08-08 10:20:24     error scss/irene.scss (Line 459: Invalid CSS after "		white": expected "{", was "}")
2013-08-08 10:20:24 overwrite styles/irene.css 
2013-08-08 10:20:34 overwrite styles/irene.css 
2013-08-08 10:21:06 overwrite styles/irene.css 
2013-08-08 10:21:27 overwrite styles/irene.css 
2013-08-08 10:21:50 overwrite styles/irene.css 
2013-08-08 10:22:01 overwrite styles/irene.css 
